Machine Learning with titanic data and tidymodels
…
Assess the results of these fitting to choose a final model.

Fit a final model with the chosen algorithm and hyperparameters to the whole training set and make predictions on the testing data to report generalization accuracy/error.

Lets start. First, we split the data using stratified sampling. Well, this step has been already done for us in the data, so we skip. But we create bootstrap (re)samples for model selection.

library(tidymodels)
set.seed(2022)
titanic_folds <- bootstraps(data = titanic_train, 
                            times = 25)
titanic_folds

# Bootstrap sampling 
# A tibble: 25 × 2
   splits            id         
   <list>            <chr>      
 1 <split [891/328]> Bootstrap01
 2 <split [891/338]> Bootstrap02
 3 <split [891/318]> Bootstrap03
 4 <split [891/316]> Bootstrap04
 5 <split [891/328]> Bootstrap05
 6 <split [891/317]> Bootstrap06
 7 <split [891/330]> Bootstrap07
 8 <split [891/339]> Bootstrap08
 9 <split [891/322]> Bootstrap09
10 <split [891/317]> Bootstrap10
# … with 15 more rows
# ℹ Use `print(n = ...)` to see more rows
…
We will define workflows that will combine model with the recipe, and fit it all together.

doParallel::registerDoParallel() # resample fitting is embarrasingly parrallel problem
titanic_glm_wf <- 
  workflow() %>% 
  add_recipe(titanic_recipe) %>% 
  add_model(titanic_glm_spec) %>% 
  fit_resamples(titanic_folds)
titanic_glm_wf

# Resampling results
# Bootstrap sampling 
# A tibble: 25 × 4
   splits            id          .metrics         .notes          
   <list>            <chr>       <list>           <list>          
 1 <split [891/328]> Bootstrap01 <tibble [2 × 4]> <tibble [0 × 3]>
 2 <split [891/338]> Bootstrap02 <tibble [2 × 4]> <tibble [0 × 3]>
 3 <split [891/318]> Bootstrap03 <tibble [2 × 4]> <tibble [0 × 3]>
 4 <split [891/316]> Bootstrap04 <tibble [2 × 4]> <tibble [0 × 3]>
 5 <split [891/328]> Bootstrap05 <tibble [2 × 4]> <tibble [0 × 3]>
 6 <split [891/317]> Bootstrap06 <tibble [2 × 4]> <tibble [0 × 3]>
 7 <split [891/330]> Bootstrap07 <tibble [2 × 4]> <tibble [0 × 3]>
 8 <split [891/339]> Bootstrap08 <tibble [2 × 4]> <tibble [0 × 3]>
 9 <split [891/322]> Bootstrap09 <tibble [2 × 4]> <tibble [0 × 3]>
10 <split [891/317]> Bootstrap10 <tibble [2 × 4]> <tibble [0 × 3]>
# … with 15 more rows
# ℹ Use `print(n = ...)` to see more rows
…
