…
First thing first, we should look at the data.

``` r
titanic_train %>% 
  print(n = 20)
```

    ## # A tibble: 891 × 12
    ##    PassengerId Survived Pclass Name   Sex     Age SibSp Parch Ticket  Fare Cabin
    ##          <dbl>    <dbl>  <dbl> <chr>  <chr> <dbl> <dbl> <dbl> <chr>  <dbl> <chr>
    ##  1           1        0      3 Braun… male     22     1     0 A/5 2…  7.25 <NA> 
    ##  2           2        1      1 Cumin… fema…    38     1     0 PC 17… 71.3  C85  
    ##  3           3        1      3 Heikk… fema…    26     0     0 STON/…  7.92 <NA> 
    ##  4           4        1      1 Futre… fema…    35     1     0 113803 53.1  C123 
    ##  5           5        0      3 Allen… male     35     0     0 373450  8.05 <NA> 
    ##  6           6        0      3 Moran… male     NA     0     0 330877  8.46 <NA> 
    ##  7           7        0      1 McCar… male     54     0     0 17463  51.9  E46  
    ##  8           8        0      3 Palss… male      2     3     1 349909 21.1  <NA> 
    ##  9           9        1      3 Johns… fema…    27     0     2 347742 11.1  <NA> 
    ## 10          10        1      2 Nasse… fema…    14     1     0 237736 30.1  <NA> 
    ## 11          11        1      3 Sands… fema…     4     1     1 PP 95… 16.7  G6   
    ## 12          12        1      1 Bonne… fema…    58     0     0 113783 26.6  C103 
    ## 13          13        0      3 Saund… male     20     0     0 A/5. …  8.05 <NA> 
    ## 14          14        0      3 Ander… male     39     1     5 347082 31.3  <NA> 
    ## 15          15        0      3 Vestr… fema…    14     0     0 350406  7.85 <NA> 
    ## 16          16        1      2 Hewle… fema…    55     0     0 248706 16    <NA> 
    ## 17          17        0      3 Rice,… male      2     4     1 382652 29.1  <NA> 
    ## 18          18        1      2 Willi… male     NA     0     0 244373 13    <NA> 
    ## 19          19        0      3 Vande… fema…    31     1     0 345763 18    <NA> 
    ## 20          20        1      3 Masse… fema…    NA     0     0 2649    7.22 <NA> 
    ## # … with 871 more rows, and 1 more variable: Embarked <chr>
    ## # ℹ Use `print(n = ...)` to see more rows, and `colnames()` to see all variable names
…
